<svg width="32" height="32" viewBox="0 0 32 32" fill="none" xmlns="http://www.w3.org/2000/svg">
<g clip-path="url(#clip0_2518_43)">
<path d="M16 23.6224C15.731 23.622 15.469 23.5369 15.2512 23.3792L8.56319 18.56C8.25721 18.3347 8.03046 18.0182 7.91548 17.656C7.8005 17.2938 7.8032 16.9045 7.92319 16.544L10.2208 9.50398C10.3237 9.19438 10.5211 8.92481 10.7851 8.73312C11.0491 8.54142 11.3665 8.43723 11.6928 8.43518C12.0173 8.43798 12.3328 8.54266 12.5946 8.73444C12.8564 8.92622 13.0514 9.1954 13.152 9.50398L14.3936 13.344H17.5936L18.8352 9.50398C18.9365 9.19516 19.1327 8.92622 19.3959 8.73555C19.6591 8.54488 19.9758 8.44222 20.3008 8.44222C20.6258 8.44222 20.9425 8.54488 21.2057 8.73555C21.4689 8.92622 21.6651 9.19516 21.7664 9.50398L24.064 16.5184C24.184 16.8789 24.1867 17.2682 24.0717 17.6304C23.9567 17.9926 23.73 18.3091 23.424 18.5344L16.7424 23.3792C16.5263 23.5356 16.2668 23.6207 16 23.6224ZM10.5152 16.7872L16 20.7616L21.472 16.7872L20.3136 13.216L19.7568 14.9312C19.6753 15.1859 19.516 15.4087 19.3013 15.5683C19.0867 15.7278 18.8274 15.8161 18.56 15.8208H13.44C13.1701 15.8206 12.9071 15.7351 12.6887 15.5764C12.4703 15.4178 12.3077 15.1942 12.224 14.9376L11.6608 13.2096L10.5152 16.7872Z" fill="#171321"/>
<path d="M16 4.81925C15.5225 4.81925 15.0557 4.67758 14.6588 4.41217C14.2619 4.14677 13.9526 3.76956 13.7702 3.32831C13.5878 2.88705 13.5404 2.40159 13.634 1.93338C13.7276 1.46517 13.958 1.03526 14.2961 0.698082C14.6342 0.360902 15.0647 0.131611 15.5332 0.039237C16.0016 -0.0531374 16.487 -0.00444185 16.9277 0.179159C17.3685 0.36276 17.7449 0.67301 18.0092 1.07063C18.2736 1.46826 18.414 1.93538 18.4128 2.41285C18.4111 3.05166 18.1561 3.66372 17.7038 4.11482C17.2515 4.56593 16.6388 4.81926 16 4.81925ZM16 2.25925C15.9801 2.25923 15.9604 2.26324 15.9421 2.27104C15.9238 2.27883 15.9073 2.29025 15.8935 2.3046C15.8798 2.31896 15.8691 2.33595 15.8621 2.35455C15.8551 2.37316 15.8519 2.39299 15.8528 2.41285C15.8528 2.57285 16.1472 2.57285 16.1472 2.41285C16.148 2.39299 16.1448 2.37316 16.1378 2.35455C16.1308 2.33595 16.1201 2.31896 16.1064 2.3046C16.0926 2.29025 16.0761 2.27883 16.0578 2.27104C16.0395 2.26324 16.0198 2.25923 16 2.25925Z" fill="#171321"/>
<path d="M16 32C15.5228 32 15.0563 31.8585 14.6595 31.5934C14.2627 31.3283 13.9534 30.9515 13.7708 30.5106C13.5882 30.0697 13.5404 29.5846 13.6335 29.1165C13.7266 28.6485 13.9564 28.2186 14.2939 27.8811C14.6313 27.5437 15.0612 27.3139 15.5292 27.2208C15.9973 27.1277 16.4824 27.1755 16.9233 27.3581C17.3642 27.5407 17.741 27.85 18.0061 28.2468C18.2713 28.6435 18.4128 29.11 18.4128 29.5872C18.4128 30.2272 18.1586 30.8409 17.7061 31.2933C17.2536 31.7458 16.6399 32 16 32ZM16 29.44C15.9609 29.44 15.9235 29.4555 15.8959 29.4832C15.8683 29.5108 15.8528 29.5482 15.8528 29.5872C15.8528 29.7536 16.1472 29.7536 16.1472 29.5872C16.1472 29.5482 16.1317 29.5108 16.104 29.4832C16.0764 29.4555 16.039 29.44 16 29.44Z" fill="#171321"/>
<path d="M29.5872 18.4128C29.11 18.4128 28.6435 18.2713 28.2468 18.0061C27.85 17.741 27.5407 17.3642 27.3581 16.9233C27.1755 16.4824 27.1277 15.9973 27.2208 15.5292C27.3139 15.0612 27.5437 14.6313 27.8811 14.2939C28.2186 13.9564 28.6485 13.7266 29.1165 13.6335C29.5846 13.5404 30.0697 13.5882 30.5106 13.7708C30.9515 13.9534 31.3283 14.2627 31.5934 14.6595C31.8585 15.0563 32 15.5228 32 16C32 16.6399 31.7458 17.2536 31.2933 17.7061C30.8409 18.1586 30.2272 18.4128 29.5872 18.4128ZM29.5872 15.8528C29.5482 15.8528 29.5108 15.8683 29.4832 15.8959C29.4555 15.9235 29.44 15.9609 29.44 16C29.44 16.1664 29.7408 16.1664 29.7408 16C29.7409 15.9801 29.7369 15.9604 29.7291 15.9421C29.7213 15.9238 29.7098 15.9073 29.6955 15.8935C29.6811 15.8798 29.6641 15.8691 29.6455 15.8621C29.6269 15.8551 29.6071 15.8519 29.5872 15.8528Z" fill="#171321"/>
<path d="M2.41285 18.4128C1.93538 18.414 1.46826 18.2736 1.07063 18.0092C0.67301 17.7449 0.36276 17.3685 0.179159 16.9277C-0.00444185 16.487 -0.0531374 16.0016 0.039237 15.5332C0.131611 15.0647 0.360902 14.6342 0.698082 14.2961C1.03526 13.958 1.46517 13.7276 1.93338 13.634C2.40159 13.5404 2.88705 13.5878 3.32831 13.7702C3.76956 13.9526 4.14677 14.2619 4.41217 14.6588C4.67758 15.0557 4.81925 15.5225 4.81925 16C4.81926 16.6388 4.56593 17.2515 4.11482 17.7038C3.66372 18.1561 3.05166 18.4111 2.41285 18.4128ZM2.41285 15.8528C2.39299 15.8519 2.37316 15.8551 2.35455 15.8621C2.33595 15.8691 2.31896 15.8798 2.3046 15.8935C2.29025 15.9073 2.27883 15.9238 2.27104 15.9421C2.26324 15.9604 2.25923 15.9801 2.25925 16C2.25925 16.1664 2.56005 16.1664 2.56005 16C2.56005 15.9609 2.54454 15.9235 2.51694 15.8959C2.48933 15.8683 2.45189 15.8528 2.41285 15.8528Z" fill="#171321"/>
<path d="M25.6 8.79996C25.0419 8.79872 24.5015 8.604 24.0708 8.24899C23.6401 7.89398 23.3458 7.40063 23.238 6.85299C23.1303 6.30534 23.2157 5.73727 23.4798 5.24556C23.7439 4.75384 24.1703 4.36889 24.6863 4.15628C25.2024 3.94366 25.7762 3.91655 26.31 4.07954C26.8439 4.24253 27.3046 4.58556 27.6139 5.05018C27.9232 5.5148 28.0618 6.07228 28.0062 6.62764C27.9506 7.18301 27.7041 7.70191 27.3088 8.09596C26.8549 8.54752 26.2404 8.80069 25.6 8.79996ZM25.6 6.23996C25.5807 6.2392 25.5614 6.24283 25.5437 6.25059C25.526 6.25835 25.5102 6.27003 25.4976 6.28476C25.4739 6.30926 25.4595 6.34124 25.4567 6.37522C25.454 6.40921 25.4631 6.4431 25.4825 6.4711C25.502 6.4991 25.5306 6.51949 25.5634 6.52876C25.5962 6.53804 25.6312 6.53565 25.6624 6.52198C25.6937 6.50831 25.7192 6.48423 25.7346 6.45383C25.7501 6.42344 25.7545 6.38862 25.7472 6.35533C25.7398 6.32204 25.7211 6.29233 25.6943 6.27129C25.6674 6.25025 25.6341 6.23918 25.6 6.23996Z" fill="#171321"/>
<path d="M6.40002 28.0192C5.8416 28.0194 5.30039 27.826 4.86866 27.4718C4.43694 27.1176 4.14143 26.6246 4.03253 26.0769C3.92363 25.5292 4.00809 24.9607 4.27149 24.4683C4.53489 23.9759 4.96093 23.5901 5.47696 23.3767C5.993 23.1633 6.56708 23.1355 7.10133 23.2981C7.63557 23.4606 8.09689 23.8034 8.40663 24.2681C8.71637 24.7327 8.85535 25.2904 8.79988 25.8461C8.7444 26.4018 8.49791 26.921 8.10242 27.3152C7.65001 27.7652 7.03813 28.0182 6.40002 28.0192ZM6.28482 25.504C6.25681 25.532 6.24108 25.57 6.24108 25.6096C6.24108 25.6492 6.25681 25.6872 6.28482 25.7152C6.31283 25.7432 6.35081 25.7589 6.39042 25.7589C6.43003 25.7589 6.46801 25.7432 6.49602 25.7152L6.28482 25.504ZM6.39362 25.4592C6.37338 25.4588 6.35327 25.4626 6.33455 25.4703C6.31583 25.478 6.2989 25.4895 6.28482 25.504L6.49602 25.7152C6.52303 25.6867 6.53808 25.6489 6.53808 25.6096C6.53808 25.5703 6.52303 25.5325 6.49602 25.504C6.48414 25.4901 6.46943 25.4789 6.45287 25.4712C6.43631 25.4635 6.41829 25.4594 6.40002 25.4592H6.39362Z" fill="#171321"/>
<path d="M25.6 28.0192C25.0419 28.018 24.5015 27.8232 24.0708 27.4682C23.6401 27.1132 23.3458 26.6199 23.238 26.0722C23.1303 25.5246 23.2157 24.9565 23.4798 24.4648C23.7439 23.9731 24.1703 23.5881 24.6863 23.3755C25.2024 23.1629 25.7762 23.1358 26.31 23.2988C26.8439 23.4618 27.3046 23.8048 27.6139 24.2694C27.9232 24.734 28.0618 25.2915 28.0062 25.8469C27.9506 26.4022 27.7041 26.9212 27.3088 27.3152C26.8549 27.7668 26.2404 28.0199 25.6 28.0192ZM25.6 25.4592C25.5807 25.4584 25.5614 25.4621 25.5437 25.4698C25.526 25.4776 25.5102 25.4893 25.4976 25.504C25.4739 25.5285 25.4595 25.5605 25.4567 25.5945C25.454 25.6284 25.4631 25.6623 25.4825 25.6903C25.502 25.7183 25.5306 25.7387 25.5634 25.748C25.5962 25.7573 25.6312 25.7549 25.6624 25.7412C25.6937 25.7276 25.7192 25.7035 25.7346 25.6731C25.7501 25.6427 25.7545 25.6079 25.7472 25.5746C25.7398 25.5413 25.7211 25.5116 25.6943 25.4905C25.6674 25.4695 25.6341 25.4584 25.6 25.4592Z" fill="#171321"/>
<path d="M6.40002 8.79997C5.8416 8.8002 5.30039 8.60673 4.86866 8.25254C4.43694 7.89836 4.14143 7.40539 4.03253 6.85769C3.92363 6.30999 4.00809 5.74147 4.27149 5.24908C4.53489 4.75668 4.96093 4.37089 5.47696 4.15749C5.993 3.94409 6.56708 3.9163 7.10133 4.07884C7.63557 4.24139 8.09689 4.58421 8.40663 5.04885C8.71637 5.5135 8.85535 6.0712 8.79988 6.62685C8.7444 7.18251 8.49791 7.70173 8.10242 8.09597C7.64962 8.54538 7.03799 8.79831 6.40002 8.79997ZM6.40002 6.23997C6.36425 6.23853 6.32909 6.24964 6.30064 6.27138C6.27219 6.29311 6.25222 6.3241 6.24419 6.35899C6.23616 6.39388 6.24057 6.43048 6.25666 6.46247C6.27275 6.49445 6.29951 6.51981 6.33231 6.53416C6.36511 6.54852 6.4019 6.55096 6.43631 6.54107C6.47072 6.53117 6.50059 6.50957 6.52077 6.47999C6.54094 6.45042 6.55015 6.41472 6.5468 6.37907C6.54345 6.34342 6.52775 6.31007 6.50242 6.28477C6.48985 6.27004 6.47411 6.25836 6.45637 6.2506C6.43863 6.24284 6.41937 6.2392 6.40002 6.23997Z" fill="#171321"/>
</g>
<defs>
<clipPath id="clip0_2518_43">
<rect width="32" height="32" fill="white"/>
</clipPath>
</defs>
</svg>
