<svg width="24" height="25" viewBox="0 0 24 25" fill="none" xmlns="http://www.w3.org/2000/svg">
<path d="M4 4.13696H23.5V18.137C23.5 19.797 22.16 21.137 20.5 21.137H0.5V3.63696" stroke="#A989F5" stroke-miterlimit="10"/>
<path d="M7.55 15.1869L5 12.6369L7.55 10.0869" stroke="#A989F5" stroke-miterlimit="10"/>
<path d="M16.45 10.0869L19 12.6369L16.45 15.1869" stroke="#A989F5" stroke-miterlimit="10"/>
<path d="M13.91 8.81689L10.09 16.4569" stroke="#A989F5" stroke-miterlimit="10"/>
</svg>
