<?xml version="1.0" encoding="utf-8"?>
<!-- Generator: Adobe Illustrator 27.8.0, SVG Export Plug-In . SVG Version: 6.00 Build 0)  -->
<svg version="1.1" id="Layer_1" xmlns="http://www.w3.org/2000/svg" xmlns:xlink="http://www.w3.org/1999/xlink" x="0px" y="0px"
	 viewBox="0 0 490 410" style="enable-background:new 0 0 490 410;" xml:space="preserve">
<style type="text/css">
	.st0{fill:#DDEBFF;}
	.st1{fill:#F0F6FF;}
	.st2{fill:#74717A;}
	.st3{fill:#45424D;}
	.st4{fill:none;stroke:#CEC3E0;stroke-width:1.7;stroke-miterlimit:10;}
	.st5{fill:#F4F1FC;}
	.st6{fill:#FFFFFF;}
	.st7{fill:#E5E2F0;}
	.st8{fill:#FF9B73;}
	.st9{fill:#CEC3E0;}
	.st10{fill:#10ADAD;}
	.st11{fill:#A484F0;}
	.st12{fill:#FF9973;}
	.st13{fill:none;stroke:#171321;stroke-width:2;stroke-miterlimit:10;}
	.st14{fill:none;stroke:#FFB69D;stroke-width:2;stroke-miterlimit:10;}
	.st15{fill:#A585F1;}
	.st16{fill:#6FD6C5;}
	.st17{fill:none;stroke:#CEC3E0;stroke-width:2;stroke-miterlimit:10;}
	.st18{fill:none;stroke:#171321;stroke-width:1.7;stroke-miterlimit:10;}
	.st19{fill:#E24329;}
	.st20{fill:#FC6D26;}
	.st21{fill:#FCA326;}
	.st22{fill:#A09FA4;}
	.st23{fill:#ACA3D4;}
	.st24{fill:none;stroke:#A585F1;stroke-width:1.7;stroke-miterlimit:10;}
	.st25{fill:#7759BE;}
	.st26{fill:#5829C9;}
	.st27{fill:#A787F3;}
	.st28{fill:#E04329;}
	.st29{fill:#FA6D26;}
	.st30{fill:#FAA126;}
	.st31{fill:#10AFAF;}
	.st32{fill:#0C8A87;}
	.st33{fill:#6FD8C7;}
	.st34{fill:#2B2838;}
	.st35{fill:#CFCED1;}
	.st36{fill:#171321;}
	.st37{fill:#0050D3;}
	.st38{fill:#A2C3EA;}
</style>
<g>
	<g>
		<path class="st4" d="M80.2,181.9v126.4c0,7.7,6.3,14,14,14H232"/>
		<path class="st4" d="M120.1,171.6v96.9c0,7.7,6.3,14,14,14h137.8"/>
		<path class="st4" d="M40.2,181.7v166.6c0,7.7,6.3,14,14,14h215.6c7.7,0,14-6.3,14-14v-8.7"/>
		<path class="st4" d="M339.4,339.7v38.7c0,7.7-6.3,14-14,14H271c-5.2,0-10.2-2.1-13.9-5.8l-18.5-18.5c-3.7-3.7-8.7-5.8-13.9-5.8
			h-92.3"/>
		<polyline class="st18" points="130.6,332.3 140.5,322.3 130.6,312.4 		"/>
		<polyline class="st18" points="299.2,402.4 309.2,392.4 299.2,382.4 		"/>
		<polyline class="st18" points="30.2,293.5 40.2,303.5 50.1,293.5 		"/>
		<polyline class="st18" points="110.1,238.5 120.1,248.5 130.1,238.5 		"/>
		<circle class="st8" cx="83.6" cy="362.4" r="3.8"/>
		<circle class="st8" cx="172.8" cy="282.4" r="3.8"/>
		<circle class="st8" cx="339.4" cy="362.4" r="3.8"/>
	</g>
	<g>
		<path class="st4" d="M120.1,130h196.8c7.7,0,14,6.3,14,14v44.7"/>
		<path class="st4" d="M120.1,100H362c7.7,0,14,6.3,14,14v74.8"/>
		<path class="st4" d="M421,188.8V84c0-7.7-6.3-14-14-14h-54.5c-5.2,0-10.2,2.1-13.9,5.8l-18.5,18.5c-3.7,3.7-8.7,5.8-13.9,5.8
			H180.5"/>
		<polyline class="st18" points="321,154.4 330.9,164.4 340.9,154.4 		"/>
		<polyline class="st18" points="411,101.9 421,111.9 431,101.9 		"/>
		<polyline class="st18" points="292.4,110 302.3,100 292.4,90 		"/>
		<circle class="st8" cx="384.4" cy="70" r="3.8"/>
		<circle class="st8" cx="376" cy="140" r="3.8"/>
		<circle class="st8" cx="274.4" cy="130" r="3.8"/>
	</g>
	<path class="st34" d="M205.5,212.5v-39.9c0-5.5,4.4-9.9,9.9-9.9h68.1c4.1,0,7.9,1.9,10.3,5.2l7.9,10.9c2.4,3.3,6.2,5.2,10.3,5.2
		h117.8c5.5,0,9.9,4.4,9.9,9.9v14.5"/>
	<path class="st3" d="M430.1,343.4H213.8c-5.1,0-9.3-3.8-9.8-8.9l-12.2-120.4c-0.6-5.8,4-10.9,9.8-10.9h240.6
		c5.9,0,10.4,5.1,9.8,10.9L440,334.5C439.4,339.5,435.2,343.4,430.1,343.4z"/>
	<path class="st18" d="M430.1,343.4H213.8c-5.1,0-9.3-3.8-9.8-8.9l-12.2-120.4c-0.6-5.8,4-10.9,9.8-10.9h240.6
		c5.9,0,10.4,5.1,9.8,10.9L440,334.5C439.4,339.5,435.2,343.4,430.1,343.4z"/>
	<path class="st18" d="M204.9,203.2v-30.6c0-5.5,4.4-9.9,9.9-9.9h68.1c4.1,0,7.9,1.9,10.3,5.2l7.9,10.9c2.4,3.3,6.2,5.2,10.3,5.2
		h117.8c5.5,0,9.9,4.4,9.9,9.9v3.3"/>
	<g>
		<path class="st19" d="M358.5,265.8l-0.1-0.3l-10.1-26.4c-0.2-0.5-0.6-1-1-1.3c-0.5-0.3-1-0.4-1.6-0.4c-0.6,0-1.1,0.2-1.5,0.6
			c-0.4,0.4-0.7,0.8-0.9,1.4l-6.8,20.9h-27.6l-6.8-20.9c-0.1-0.5-0.5-1-0.9-1.4c-0.4-0.3-1-0.6-1.5-0.6c-0.6,0-1.1,0.1-1.6,0.4
			c-0.5,0.3-0.8,0.7-1,1.3l-10.1,26.4l-0.1,0.3c-3,7.8-0.4,16.6,6.2,21.7c0,0,0,0,0,0l0.1,0.1l15.4,11.5l7.6,5.8l4.6,3.5
			c1.1,0.8,2.7,0.8,3.8,0l4.6-3.5l7.6-5.8l15.5-11.6c0,0,0,0,0,0C359,282.5,361.5,273.6,358.5,265.8z"/>
		<path class="st20" d="M358.5,265.8l-0.1-0.3c-5,1-9.6,3.2-13.6,6.1c-0.1,0-12,9.1-22.2,16.8c7.6,5.7,14.1,10.7,14.1,10.7
			l15.5-11.6c0,0,0,0,0,0C359,282.5,361.5,273.6,358.5,265.8z"/>
		<path class="st21" d="M308.5,299.1l7.6,5.8l4.6,3.5c1.1,0.8,2.7,0.8,3.8,0l4.6-3.5l7.6-5.8c0,0-6.6-5-14.1-10.7
			C315.1,294.2,308.5,299.1,308.5,299.1z"/>
		<path class="st20" d="M300.4,271.7c-4-3-8.6-5.1-13.6-6.1l-0.1,0.3c-3,7.8-0.4,16.6,6.2,21.7c0,0,0,0,0,0l0.1,0.1l15.4,11.5
			c0,0,6.6-5,14.1-10.7C312.5,280.7,300.5,271.7,300.4,271.7z"/>
	</g>
	<path class="st7" d="M466,172.2l2,5.1c0.3,0.8,1,1.5,1.9,1.9l5.1,2c1.6,0.7,1.6,3,0,3.6l-5.1,2c-0.8,0.3-1.5,1-1.9,1.9l-2,5.1
		c-0.7,1.6-3,1.6-3.6,0l-2-5.1c-0.3-0.8-1-1.5-1.9-1.9l-5.1-2c-1.6-0.7-1.6-3,0-3.6l5.1-2c0.8-0.3,1.5-1,1.9-1.9l2-5.1
		C463,170.5,465.3,170.5,466,172.2z"/>
	<path class="st7" d="M377.8,359l2,5.1c0.3,0.8,1,1.5,1.9,1.9l5.1,2c1.6,0.7,1.6,3,0,3.6l-5.1,2c-0.8,0.3-1.5,1-1.9,1.9l-2,5.1
		c-0.7,1.6-3,1.6-3.6,0l-2-5.1c-0.3-0.8-1-1.5-1.9-1.9l-5.1-2c-1.6-0.7-1.6-3,0-3.6l5.1-2c0.8-0.3,1.5-1,1.9-1.9l2-5.1
		C374.8,357.3,377.1,357.3,377.8,359z"/>
	<path class="st7" d="M477.4,201.2l1.3,3.4c0.2,0.6,0.7,1,1.2,1.2l3.4,1.3c1.1,0.4,1.1,2,0,2.4L480,211c-0.6,0.2-1,0.7-1.2,1.2
		l-1.3,3.4c-0.4,1.1-2,1.1-2.4,0l-1.3-3.4c-0.2-0.6-0.7-1-1.2-1.2l-3.4-1.3c-1.1-0.4-1.1-2,0-2.4l3.4-1.3c0.6-0.2,1-0.7,1.2-1.2
		l1.3-3.4C475.4,200.1,476.9,200.1,477.4,201.2z"/>
	<path class="st7" d="M181.6,252.7l1.3,3.4c0.2,0.6,0.7,1,1.2,1.2l3.4,1.3c1.1,0.4,1.1,2,0,2.4l-3.4,1.3c-0.6,0.2-1,0.7-1.2,1.2
		l-1.3,3.4c-0.4,1.1-2,1.1-2.4,0l-1.3-3.4c-0.2-0.6-0.7-1-1.2-1.2l-3.4-1.3c-1.1-0.4-1.1-2,0-2.4l3.4-1.3c0.6-0.2,1-0.7,1.2-1.2
		l1.3-3.4C179.6,251.6,181.2,251.6,181.6,252.7z"/>
	<path class="st0" d="M6.7,35v159.3h0c0.9,14.7,33.5,26.5,73.5,26.5c40,0,72.5-11.8,73.5-26.5h0V35H6.7z"/>
	<ellipse class="st1" cx="80.2" cy="35" rx="73.5" ry="27.1"/>
	<g>
		<path class="st18" d="M6.7,54.2v139.2c0,15,32.9,27.1,73.5,27.1s73.5-12.2,73.5-27.1v-37.2"/>
		<line class="st18" x1="153.7" y1="35" x2="153.7" y2="140.6"/>
		<ellipse class="st18" cx="80.2" cy="35" rx="73.5" ry="27.1"/>
		<path class="st18" d="M50.3,113.9c-25.7-4.7-43.6-15-43.6-26.1"/>
		<path class="st18" d="M153.7,87.8c0,11.1-17.9,21.4-43.7,26.1"/>
		<path class="st18" d="M50.3,166c-25.7-4.4-43.6-14.4-43.6-25.4"/>
		<path class="st18" d="M153.7,140.6c0,11.1-17.9,21-43.7,25.4"/>
	</g>
	<polygon class="st37" points="45.9,148.4 94.2,87.8 96.3,87.8 84.8,134.7 114.5,134.7 66.2,195.3 64.1,195.3 75.6,148.4 	"/>
</g>
</svg>
