<svg width="35" height="36" viewBox="0 0 35 36" fill="none" xmlns="http://www.w3.org/2000/svg">
<path d="M16.6596 10.1884H32.3192V30.1238C32.3192 31.7806 30.976 33.1238 29.3192 33.1238H1V12.2121" stroke="white" stroke-width="1.45" stroke-miterlimit="10"/>
<path d="M10.6003 25.0963L7.12793 21.656L10.6003 18.2157" stroke="white" stroke-width="1.45" stroke-miterlimit="10"/>
<path d="M22.7188 18.2157L26.1911 21.656L22.7188 25.0963" stroke="white" stroke-width="1.45" stroke-miterlimit="10"/>
<path d="M19.2603 16.5023L14.0586 26.8097" stroke="white" stroke-width="1.45" stroke-miterlimit="10"/>
<path d="M5.03035 1.8371L5.72482 3.55052C5.83376 3.83384 6.06524 4.06319 6.3512 4.17112L8.08056 4.85918C8.63886 5.07505 8.63886 5.87104 8.08056 6.08691L6.3512 6.77497C6.06524 6.8829 5.83376 7.11225 5.72482 7.39557L5.03035 9.10899C4.81248 9.66214 4.00907 9.66214 3.7912 9.10899L3.09673 7.39557C2.9878 7.11225 2.75631 6.8829 2.47035 6.77497L0.740989 6.08691C0.182691 5.87104 0.182691 5.07505 0.740989 4.85918L2.47035 4.17112C2.75631 4.06319 2.9878 3.83384 3.09673 3.55052L3.7912 1.8371C4.00907 1.28395 4.81248 1.28395 5.03035 1.8371Z" fill="white"/>
<path d="M11.7027 7.71949L12.1657 8.85277C12.2474 9.04165 12.3972 9.19006 12.5878 9.27101L13.7316 9.72971C14.0993 9.87812 14.0993 10.4043 13.7316 10.5527L12.5878 11.0114C12.3972 11.0924 12.2474 11.2408 12.1657 11.4296L11.7027 12.5629C11.5529 12.9272 11.0219 12.9272 10.8721 12.5629L10.4091 11.4296C10.3274 11.2408 10.1776 11.0924 9.98696 11.0114L8.84313 10.5527C8.47547 10.4043 8.47547 9.87812 8.84313 9.72971L9.98696 9.27101C10.1776 9.19006 10.3274 9.04165 10.4091 8.85277L10.8721 7.71949C11.0219 7.35522 11.5529 7.35522 11.7027 7.71949Z" fill="white"/>
</svg>
