<svg width="35" height="36" viewBox="0 0 35 36" fill="none" xmlns="http://www.w3.org/2000/svg">
<path d="M23.6602 27.5662L33.0002 11.9216L24.031 6.56482" stroke="white" stroke-width="1.53689" stroke-miterlimit="10"/>
<path d="M11.9841 2.18347H23.6592V29.1641C23.6592 31.7105 21.5949 33.7748 19.0485 33.7748C13.2599 33.7748 7.47124 33.7748 1.68262 33.7748V13.8585" stroke="white" stroke-width="1.53689" stroke-miterlimit="10"/>
<path d="M5.749 1.92236L6.4495 3.66675C6.55938 3.95519 6.79288 4.18869 7.08132 4.29858L8.82571 4.99908C9.38886 5.21884 9.38886 6.02923 8.82571 6.249L7.08132 6.9495C6.79288 7.05938 6.55938 7.29288 6.4495 7.58132L5.749 9.32571C5.52923 9.88886 4.71884 9.88886 4.49908 9.32571L3.79858 7.58132C3.68869 7.29288 3.45519 7.05938 3.16675 6.9495L1.42236 6.249C0.859213 6.02923 0.859213 5.21884 1.42236 4.99908L3.16675 4.29858C3.45519 4.18869 3.68869 3.95519 3.79858 3.66675L4.49908 1.92236C4.71884 1.35921 5.52923 1.35921 5.749 1.92236Z" fill="white"/>
<path d="M9.64987 10.0263L10.1169 11.1801C10.1993 11.3724 10.3504 11.5235 10.5427 11.6059L11.6964 12.0729C12.0673 12.224 12.0673 12.7596 11.6964 12.9107L10.5427 13.3777C10.3504 13.4601 10.1993 13.6112 10.1169 13.8035L9.64987 14.9573C9.49878 15.3282 8.9631 15.3282 8.81201 14.9573L8.34501 13.8035C8.2626 13.6112 8.11151 13.4601 7.91921 13.3777L6.76545 12.9107C6.39459 12.7596 6.39459 12.224 6.76545 12.0729L7.91921 11.6059C8.11151 11.5235 8.2626 11.3724 8.34501 11.1801L8.81201 10.0263C8.9631 9.65546 9.49878 9.65546 9.64987 10.0263Z" fill="white"/>
<path d="M6.49023 18.6658H18.852" stroke="white" stroke-width="1.53689" stroke-miterlimit="10"/>
<path d="M6.49023 22.7865H18.852" stroke="white" stroke-width="1.53689" stroke-miterlimit="10"/>
<path d="M6.49023 26.9071H13.3579" stroke="white" stroke-width="1.53689" stroke-miterlimit="10"/>
</svg>
