<svg width="34" height="34" viewBox="0 0 34 34" fill="none" xmlns="http://www.w3.org/2000/svg">
<g clip-path="url(#clip0_1_46)">
<path d="M1.67871 11.666V31.4128L8.48795 24.6036H28.9157C31.1763 24.6036 33.0012 22.7787 33.0012 20.518V1.45215H11.8926" stroke="white" stroke-width="1.45896" stroke-miterlimit="10"/>
<path d="M16.6587 9.62317H24.1489" stroke="white" stroke-width="1.45896" stroke-miterlimit="10"/>
<path d="M9.84961 16.4325H24.149" stroke="white" stroke-width="1.45896" stroke-miterlimit="10"/>
<path d="M5.70859 1.19343L6.40313 2.92297C6.51208 3.20896 6.74359 3.44047 7.02958 3.54942L8.75912 4.24396C9.31748 4.46186 9.31748 5.26535 8.75912 5.48324L7.02958 6.17779C6.74359 6.28673 6.51208 6.51825 6.40313 6.80424L5.70859 8.53378C5.49069 9.09214 4.6872 9.09214 4.46931 8.53378L3.77476 6.80424C3.66582 6.51825 3.4343 6.28673 3.14831 6.17779L1.41877 5.48324C0.86041 5.26535 0.86041 4.46186 1.41877 4.24396L3.14831 3.54942C3.4343 3.44047 3.66582 3.20896 3.77476 2.92297L4.46931 1.19343C4.6872 0.635069 5.49069 0.635069 5.70859 1.19343Z" fill="white"/>
<path d="M10.9374 6.50466L11.4004 7.64861C11.4822 7.83927 11.632 7.98907 11.8226 8.07078L12.9666 8.53381C13.3343 8.68361 13.3343 9.21473 12.9666 9.36454L11.8226 9.82756C11.632 9.90927 11.4822 10.0591 11.4004 10.2497L10.9374 11.3937C10.7876 11.7614 10.2565 11.7614 10.1067 11.3937L9.64366 10.2497C9.56195 10.0591 9.41214 9.90927 9.22148 9.82756L8.07753 9.36454C7.70983 9.21473 7.70983 8.68361 8.07753 8.53381L9.22148 8.07078C9.41214 7.98907 9.56195 7.83927 9.64366 7.64861L10.1067 6.50466C10.2565 6.13696 10.7876 6.13696 10.9374 6.50466Z" fill="white"/>
</g>
<defs>
<clipPath id="clip0_1_46">
<rect width="34" height="33" fill="white" transform="translate(0 0.5)"/>
</clipPath>
</defs>
</svg>
