<svg width="34" height="33" viewBox="0 0 34 33" fill="none" xmlns="http://www.w3.org/2000/svg">
<g clip-path="url(#clip0_1_131)">
<path d="M23.6599 26.0367L33 11.01L24.0308 5.86481" stroke="white" stroke-width="1.40469" stroke-miterlimit="10"/>
<path d="M11.9848 1.65631H23.6598C23.6598 10.8021 23.6598 19.9479 23.6598 29.0937C23.6598 30.6988 22.3587 32 20.7536 32H1.68323V12.8703" stroke="white" stroke-width="1.40469" stroke-miterlimit="10"/>
<path d="M5.74901 1.40568L6.44951 3.08118C6.5594 3.35823 6.7929 3.58251 7.08134 3.68805L8.82573 4.36089C9.38888 4.57198 9.38888 5.35036 8.82573 5.56144L7.08134 6.23428C6.7929 6.33982 6.5594 6.5641 6.44951 6.84115L5.74901 8.51665C5.52924 9.05756 4.71885 9.05756 4.49909 8.51665L3.79858 6.84115C3.6887 6.5641 3.4552 6.33982 3.16676 6.23428L1.42236 5.56144C0.859213 5.35036 0.859213 4.57198 1.42236 4.36089L3.16676 3.68805C3.4552 3.58251 3.6887 3.35823 3.79858 3.08118L4.49909 1.40568C4.71885 0.864773 5.52924 0.864773 5.74901 1.40568Z" fill="white"/>
<path d="M9.64988 9.18958L10.1169 10.2978C10.1993 10.4825 10.3504 10.6276 10.5427 10.7068L11.6964 11.1553C12.0673 11.3004 12.0673 11.815 11.6964 11.9601L10.5427 12.4086C10.3504 12.4878 10.1993 12.6329 10.1169 12.8176L9.64988 13.9258C9.49879 14.282 8.96311 14.282 8.81202 13.9258L8.34502 12.8176C8.2626 12.6329 8.11151 12.4878 7.91922 12.4086L6.76545 11.9601C6.39459 11.815 6.39459 11.3004 6.76545 11.1553L7.91922 10.7068C8.11151 10.6276 8.2626 10.4825 8.34502 10.2978L8.81202 9.18958C8.96311 8.83337 9.49879 8.83337 9.64988 9.18958Z" fill="white"/>
</g>
<defs>
<clipPath id="clip0_1_131">
<rect width="34" height="33" fill="white"/>
</clipPath>
</defs>
</svg>
