<svg width="34" height="33" viewBox="0 0 34 33" fill="none" xmlns="http://www.w3.org/2000/svg">
<g clip-path="url(#clip0_5_253)">
<path d="M27.496 21.8616V28.0551C27.496 30.3355 25.6474 32.1842 23.367 32.1842H1.33984V9.47449" stroke="white" stroke-width="1.37634" stroke-miterlimit="10"/>
<path d="M13.0415 1.90454H25.4313" stroke="white" stroke-width="1.37634" stroke-miterlimit="10"/>
<path d="M5.75974 0.610726L6.46182 2.35868C6.57195 2.64771 6.80598 2.88169 7.09508 2.9918L8.84341 3.69374C9.40783 3.91395 9.40783 4.72599 8.84341 4.94621L7.09508 5.64814C6.80598 5.75825 6.57195 5.99223 6.46182 6.28126L5.75974 8.02922C5.53947 8.59352 4.72725 8.59352 4.50699 8.02922L3.80491 6.28126C3.69477 5.99223 3.46075 5.75825 3.17165 5.64814L1.42332 4.94621C0.858894 4.72599 0.858894 3.91395 1.42332 3.69374L3.17165 2.9918C3.46075 2.88169 3.69477 2.64771 3.80491 2.35868L4.50699 0.610726C4.72725 0.0464247 5.53947 0.0464247 5.75974 0.610726Z" fill="white"/>
<path d="M12.505 6.61172L12.9729 7.76785C13.0555 7.96053 13.2069 8.11193 13.3996 8.19451L14.5557 8.66247C14.9273 8.81387 14.9273 9.35064 14.5557 9.50204L13.3996 9.97C13.2069 10.0526 13.0555 10.204 12.9729 10.3967L12.505 11.5528C12.3536 11.9244 11.8168 11.9244 11.6654 11.5528L11.1974 10.3967C11.1149 10.204 10.9635 10.0526 10.7708 9.97L9.61465 9.50204C9.24303 9.35064 9.24303 8.81387 9.61465 8.66247L10.7708 8.19451C10.9635 8.11193 11.1149 7.96053 11.1974 7.76785L11.6654 6.61172C11.8168 6.2401 12.3536 6.2401 12.505 6.61172Z" fill="white"/>
<path d="M13.4409 19.4116L18.4508 24.4215" stroke="white" stroke-width="1.37634" stroke-miterlimit="10"/>
<path d="M30.4707 12.4061L18.4527 24.4216L11.6934 26.1695L13.4417 19.4117L29.2455 3.625L32.1227 6.50156C33.2929 7.67145 33.2929 9.57081 32.1227 10.7545L30.4707 12.4061ZM30.4707 12.4061L25.4598 7.39618" stroke="white" stroke-width="1.37634" stroke-miterlimit="10"/>
<path d="M12.3265 24.05L11.6934 26.1696L13.8129 25.5365L12.3265 24.05Z" fill="white"/>
</g>
<defs>
<clipPath id="clip0_5_253">
<rect width="34" height="33" fill="white"/>
</clipPath>
</defs>
</svg>
