<svg width="34" height="29" viewBox="0 0 34 29" fill="none" xmlns="http://www.w3.org/2000/svg">
<g clip-path="url(#clip0_1_69)">
<path d="M24.0079 13.7936C24.0361 14.0328 24.0501 14.2719 24.0501 14.511C24.0501 18.3932 20.898 21.544 17.0141 21.544C13.1302 21.544 9.97803 18.3932 9.97803 14.511C9.97803 10.6288 13.1302 7.47803 17.0141 7.47803C17.2533 7.47803 17.4785 7.47803 17.7177 7.50616" stroke="white" stroke-width="1.40659" stroke-miterlimit="10"/>
<path d="M22.6284 13.8076C25.3485 13.8076 27.5536 11.6034 27.5536 8.8845C27.5536 6.16556 25.3485 3.96143 22.6284 3.96143C19.9082 3.96143 17.7031 6.16556 17.7031 8.8845C17.7031 11.6034 19.9082 13.8076 22.6284 13.8076Z" stroke="white" stroke-width="1.40659" stroke-miterlimit="10"/>
<path d="M2.92788 18.1822C6.48813 23.9352 11.4697 27.522 17 27.522C23.6139 27.522 29.4679 22.3738 33 14.511C29.4679 6.64813 23.628 1.5 17 1.5C10.372 1.5 4.5321 6.64813 1 14.511" stroke="white" stroke-width="1.40659" stroke-miterlimit="10"/>
</g>
<defs>
<clipPath id="clip0_1_69">
<rect width="34" height="28" fill="white" transform="translate(0 0.5)"/>
</clipPath>
</defs>
</svg>
