<svg width="34" height="29" viewBox="0 0 34 29" fill="none" xmlns="http://www.w3.org/2000/svg">
<g clip-path="url(#clip0_1_194)">
<path d="M27.5038 27.6296L26.0986 23.5391C24.8604 20.4644 22.356 19.3652 19.1282 19.3652H14.9404C11.3925 19.3652 9.09687 20.8818 7.96992 23.5391L6.57861 27.7131L27.5038 27.6296Z" stroke="white" stroke-width="1.3913" stroke-miterlimit="10"/>
<path d="M17.0275 15.1913C19.7246 15.1913 21.911 13.0111 21.911 10.3217C21.911 7.63233 19.7246 5.45215 17.0275 5.45215C14.3305 5.45215 12.144 7.63233 12.144 10.3217C12.144 13.0111 14.3305 15.1913 17.0275 15.1913Z" stroke="white" stroke-width="1.3913" stroke-miterlimit="10"/>
<path d="M7.84489 10.4888C6.27272 9.6818 5.1875 8.04006 5.1875 6.14789C5.1875 3.46267 7.37185 1.27832 10.071 1.27832C11.4066 1.27832 12.6032 1.80702 13.4936 2.66962" stroke="white" stroke-width="1.3913" stroke-miterlimit="10"/>
<path d="M5.88348 22.1479H1V20.7566C1 20.7566 2.36348 18.0436 2.3913 17.974C3.33739 15.9705 4.35304 15.2331 6.57913 15.1914H10.0713" stroke="white" stroke-width="1.3913" stroke-miterlimit="10"/>
<path d="M26.155 10.4888C27.7272 9.6818 28.8124 8.04006 28.8124 6.14789C28.8124 3.46267 26.6281 1.27832 23.929 1.27832C22.5933 1.27832 21.3968 1.80702 20.5063 2.66962" stroke="white" stroke-width="1.3913" stroke-miterlimit="10"/>
<path d="M28.1165 22.1479H33V20.7566C33 20.7566 31.6365 18.0436 31.6087 17.974C30.6626 15.9705 29.647 15.2331 27.4209 15.1914H23.9287" stroke="white" stroke-width="1.3913" stroke-miterlimit="10"/>
</g>
<defs>
<clipPath id="clip0_1_194">
<rect width="34" height="29" fill="white"/>
</clipPath>
</defs>
</svg>
