<svg width="25" height="24" viewBox="0 0 25 24" fill="none" xmlns="http://www.w3.org/2000/svg">
<g clip-path="url(#clip0_1_201)">
<mask id="mask0_1_201" style="mask-type:luminance" maskUnits="userSpaceOnUse" x="0" y="0" width="25" height="24">
<path d="M24.2001 0H0.200073V24H24.2001V0Z" fill="white"/>
</mask>
<g mask="url(#mask0_1_201)">
<path d="M22.2001 13.5V18.5C22.2001 20.16 20.8601 21.5 19.2001 21.5H2.20007V15.5" stroke="white" stroke-miterlimit="10"/>
<path d="M2.20007 10.18V2.5H22.2001V8.5" stroke="white" stroke-miterlimit="10"/>
<path d="M2.20007 13.5C3.0285 13.5 3.70007 12.8284 3.70007 12C3.70007 11.1716 3.0285 10.5 2.20007 10.5C1.37165 10.5 0.700073 11.1716 0.700073 12C0.700073 12.8284 1.37165 13.5 2.20007 13.5Z" stroke="white" stroke-miterlimit="10"/>
<path d="M22.2001 13.5C23.0285 13.5 23.7001 12.8284 23.7001 12C23.7001 11.1716 23.0285 10.5 22.2001 10.5C21.3716 10.5 20.7001 11.1716 20.7001 12C20.7001 12.8284 21.3716 13.5 22.2001 13.5Z" stroke="white" stroke-miterlimit="10"/>
<path d="M10.92 15.57L13.48 8.42999" stroke="white" stroke-miterlimit="10"/>
<path d="M15.7501 9.45001L18.3101 12L15.7501 14.55" stroke="white" stroke-miterlimit="10"/>
<path d="M8.65009 14.55L6.09009 12L8.65009 9.45001" stroke="white" stroke-miterlimit="10"/>
</g>
</g>
<defs>
<clipPath id="clip0_1_201">
<rect width="25" height="24" fill="white"/>
</clipPath>
</defs>
</svg>
