<svg width="130" height="32" viewBox="0 0 130 32" fill="none" xmlns="http://www.w3.org/2000/svg">
<path d="M66.7138 3.49024H66.1501C65.5852 3.49024 65.1253 3.94844 65.1253 4.51126V27.4892C65.1253 28.0515 65.5852 28.5103 66.1501 28.5103H66.7138C67.2787 28.5103 67.7392 28.0515 67.7392 27.4892V4.51126C67.7392 3.94844 67.2787 3.49024 66.7138 3.49024ZM49.2881 6.35985H48.7244C48.1595 6.35985 47.6996 6.81806 47.6996 7.38087V24.619C47.6996 25.1818 48.1595 25.6401 48.7244 25.6401H49.2881C49.8536 25.6401 50.3135 25.1818 50.3135 24.619V7.38087C50.3135 6.81806 49.8536 6.35985 49.2881 6.35985ZM58.001 0.85498H57.4378C56.8723 0.85498 56.4125 1.31318 56.4125 1.87659V30.1239C56.4125 30.6867 56.8723 31.1449 57.4378 31.1449H58.001C58.5665 31.1449 59.0264 30.6867 59.0264 30.1239V1.87659C59.0264 1.31318 58.5665 0.85498 58.001 0.85498ZM62.3577 5.88236H61.794C61.2285 5.88236 60.7686 6.34057 60.7686 6.90338V25.0971C60.7686 25.6599 61.2285 26.1181 61.794 26.1181H62.3577C62.9226 26.1181 63.3825 25.6599 63.3825 25.0971V6.90338C63.3825 6.34057 62.9226 5.88236 62.3577 5.88236ZM53.6448 4.20793H53.0811C52.5156 4.20793 52.0563 4.66613 52.0563 5.22954V26.7715C52.0563 27.3344 52.5156 27.7926 53.0811 27.7926H53.6448C54.2103 27.7926 54.6696 27.3344 54.6696 26.7715V5.22954C54.6696 4.66613 54.2103 4.20793 53.6448 4.20793ZM71.0705 10.1283H70.5062C69.9413 10.1283 69.4814 10.5871 69.4814 11.1499V20.8505C69.4814 21.4134 69.9413 21.8716 70.5062 21.8716H71.0705C71.6354 21.8716 72.0953 21.4134 72.0953 20.8505V11.1499C72.0953 10.5871 71.6354 10.1283 71.0705 10.1283ZM44.932 10.1283H44.3683C43.8034 10.1283 43.3435 10.5871 43.3435 11.1499V20.8505C43.3435 21.4134 43.8034 21.8716 44.3683 21.8716H44.932C45.4975 21.8716 45.9574 21.4134 45.9574 20.8505V11.1499C45.9574 10.5871 45.4975 10.1283 44.932 10.1283ZM124.408 13.7165C122.408 12.9097 121.593 12.2094 121.593 11.2995C121.593 10.6586 122.262 10.1367 123.085 10.1367C124.446 10.1367 126.1 11.2339 126.643 11.5941C126.742 11.6602 126.813 11.7061 126.821 11.7078C126.946 11.805 127.11 11.8399 127.296 11.8071C127.581 11.7579 127.89 11.5512 128.046 11.3084L129.431 9.22306C129.588 8.95077 129.641 8.33465 129.211 8.08634C128.157 7.31703 125.989 6.02585 123.301 6.02585C120.093 6.02585 116.846 7.93905 116.846 11.5958C116.846 14.9264 119.77 16.7774 122.223 17.7436C124.032 18.4591 124.874 19.2612 124.874 20.2683C124.874 21.0957 124.194 21.6735 123.22 21.6735C122.524 21.6735 121.33 21.4332 119.597 20.2906C119.53 20.2464 119.495 20.2246 119.503 20.2309C119.33 20.1076 119.047 20.0579 118.797 20.1084C118.572 20.1534 118.394 20.273 118.279 20.4607L117.008 22.6958C116.723 23.1932 116.882 23.4079 117.178 23.7025C117.535 24.0594 119.517 25.8379 123.41 25.8379C127.535 25.8379 130 22.8965 130 20.0524C130 15.9319 125.79 14.2644 124.408 13.7165ZM111.829 6.16053H108.504C108.104 6.16053 107.78 6.48458 107.78 6.88271V17.7903C107.78 19.6051 106.417 20.9737 104.612 20.9737C102.836 20.9737 101.498 19.6051 101.498 17.7903V6.88271C101.498 6.48458 101.173 6.16053 100.773 6.16053H97.4479C97.0619 6.16053 96.7231 6.49805 96.7231 6.88271V18.0062C96.7231 22.2505 100.262 25.7036 104.612 25.7036C108.991 25.7036 112.554 22.2505 112.554 18.0062V6.88271C112.554 6.49805 112.215 6.16053 111.829 6.16053ZM88.1875 12.4034C88.1875 11.4081 87.3435 10.5673 86.3441 10.5673H82.5547V14.3478H86.3441C87.3262 14.3478 88.1875 13.4392 88.1875 12.4034ZM88.8844 17.8408L92.4775 24.4777C92.608 24.7197 92.6067 25.0071 92.4745 25.2276C92.3444 25.4444 92.11 25.569 91.832 25.569H88.2365C87.9332 25.569 87.7017 25.3825 87.6147 25.21L84.0783 18.1889H82.5547V24.8468C82.5547 25.2314 82.2159 25.569 81.8298 25.569H78.6132C78.2131 25.569 77.8883 25.2449 77.8883 24.8468V7.01696C77.8883 6.61883 78.2131 6.2952 78.6132 6.2952H86.696C90.0613 6.2952 92.7998 8.99917 92.7998 12.3231C92.7998 14.6908 91.3061 16.7858 88.8844 17.8408ZM36.8657 6.2952H33.6491C33.249 6.2952 32.9242 6.61883 32.9242 7.01696V13.5936H25.6153V7.01696C25.6153 6.61883 25.2904 6.2952 24.8904 6.2952H21.6738C21.2877 6.2952 20.9489 6.6323 20.9489 7.01696V24.8468C20.9489 25.2314 21.2877 25.569 21.6738 25.569H24.8904C25.2904 25.569 25.6153 25.2449 25.6153 24.8468V17.9738H32.9242V24.8468C32.9242 25.2449 33.249 25.569 33.6491 25.569H36.8657C37.2518 25.569 37.5906 25.2314 37.5906 24.8468V7.01696C37.5906 6.6323 37.2518 6.2952 36.8657 6.2952ZM5.01779 15.8511C5.01779 18.7991 7.26416 21.1079 10.1319 21.1079C11.4076 21.1079 12.7103 20.6437 13.6163 19.8664C13.8998 19.624 14.386 19.6471 14.6174 19.9152L16.7194 22.1436C16.9817 22.405 16.969 22.8839 16.6877 23.1642C14.8781 24.9141 12.5557 25.8379 9.96969 25.8379C4.47246 25.8379 0 21.4063 0 15.9592C0 10.4818 4.47246 6.02585 9.96969 6.02585C12.644 6.02585 14.7053 6.81537 16.6539 8.58547C16.8114 8.72478 16.9027 8.91163 16.9086 9.10986C16.9141 9.30681 16.8359 9.49662 16.6872 9.64392L14.5824 11.8222C14.4481 11.9565 14.2749 12.0285 14.092 12.0285H14.0915C13.9086 12.0285 13.7359 11.9561 13.6049 11.8252C12.6693 10.9949 11.3902 10.5134 10.1049 10.5134C7.25233 10.5134 5.01779 12.858 5.01779 15.8511Z" fill="url(#paint0_linear_10_2497)"/>
<defs>
<linearGradient id="paint0_linear_10_2497" x1="141.314" y1="31.1449" x2="126.78" y2="-49.0545" gradientUnits="userSpaceOnUse">
<stop stop-color="#31BCB6"/>
<stop offset="1" stop-color="#00B5D0"/>
</linearGradient>
</defs>
</svg>
